Get list of links to IATF resolutions from Department of Health website — get_iatf_links • covidphtext
…
sourceSource of resolution. This is by default from IATF

typeType of document. This is by default a resolution

urlAbsolute URL for PDF of resolution

checkedDate (in <YYYY-MM-DD format) table was extracted. This
    is by default provided by Sys.Date

    Examples

base <- system.file("extdata", "iatf.html", package = "covidphtext")
get_iatf_links(base = base)
#> Warning: NAs introduced by coercion
#> # A tibble: 74 x 7
#>       id title              date       source type  url               checked   
#>    <dbl> <chr>              <date>     <chr>  <chr> <chr>             <date>    
#>  1     9 Recommendations f… 2020-03-03 IATF   reso… https://doh.gov.… 2020-08-04
#>  2    10 Recommendations f… 2020-03-09 IATF   reso… https://doh.gov.… 2020-08-04
#>  3    11 Recommendations f… 2020-03-12 IATF   reso… https://doh.gov.… 2020-08-04
#>  4    12 Recommendations f… 2020-03-13 IATF   reso… https://doh.gov.… 2020-08-04
#>  5    13 Recommendations f… 2020-03-17 IATF   reso… https://doh.gov.… 2020-08-04
#>  6    14 Resolutions Relat… 2020-03-20 IATF   reso… https://doh.gov.… 2020-08-04
#>  7    15 Resolutions Relat… 2020-03-25 IATF   reso… https://doh.gov.… 2020-08-04
#>  8    16 Additional Guidel… 2020-03-30 IATF   reso… https://doh.gov.… 2020-08-04
#>  9    17 Recommendations R… 2020-03-30 IATF   reso… https://doh.gov.… 2020-08-04
#> 10    18 Recommendations R… 2020-04-01 IATF   reso… https://doh.gov.… 2020-08-04
#> # … with 64 more rows
…
